Division,WeightClassKg,Place,Name,Team,BodyweightKg,Best3SquatKg,Best3BenchKg,Best3DeadliftKg,TotalKg,Equipment,Event,Sex,BirthDate
Boys,51.71,1,Jesse Ribble,Daingerfield,50.8,140.61,77.11,140.61,358.34,Single-ply,SBD,M,
Boys,51.71,2,Chance Paschal,Blooming Grove,50.53,131.54,77.11,147.42,356.07,Single-ply,SBD,M,
Boys,51.71,3,Heath Schlottman,Mount Vernon,50.62,138.35,81.65,136.08,356.07,Single-ply,SBD,M,
Boys,51.71,4,Manuel Padilla,Rice,49.53,133.81,83.91,131.54,349.27,Single-ply,SBD,M,
Boys,51.71,5,Sebastian Urteaga,Eustace,50.98,133.81,68.04,129.27,331.12,Single-ply,SBD,M,
Boys,51.71,6,Kale Roethle,Mount Vernon,50.98,120.2,61.23,145.15,326.59,Single-ply,SBD,M,
Boys,51.71,7,Jose Ruiz,Diboll,48.99,124.74,61.23,136.08,322.05,Single-ply,SBD,M,
Boys,51.71,8,Shane Schilder,Shelbyville,51.71,111.13,70.31,127.01,308.44,Single-ply,SBD,M,
Boys,51.71,9,Lane Thieme,Palestine Westwood,49.35,113.4,61.23,131.54,306.17,Single-ply,SBD,M,
Boys,51.71,10,Avery Whitlow,Atlanta,49.99,106.59,61.23,117.93,285.76,Single-ply,SBD,M,
Boys,51.71,DQ,Hugo Sanchez,Pattonville Prairiland,50.53,120.2,72.57,,,Single-ply,SBD,M,
Boys,51.71,DQ,Ethan Reynolds,Quitman,50.26,,,,,Single-ply,SBD,M,
Boys,51.71,DQ,Dayce Drennan,Winnsboro,51.35,,,,,Single-ply,SBD,M,
Boys,55.79,1,BJ Stidham,Gladewater Sabine,55.7,192.78,117.93,217.72,528.44,Single-ply,SBD,M,
Boys,55.79,2,Aeneas Page,Palestine Westwood,55.34,176.9,99.79,190.51,467.2,Single-ply,SBD,M,
Boys,55.79,3,Joe Velasquez,Blooming Grove,55.16,142.88,88.45,154.22,385.55,Single-ply,SBD,M,
Boys,55.79,4,Jace Lindsay,Beckville,55.16,140.61,86.18,151.95,378.75,Single-ply,SBD,M,
Boys,55.79,5,Kadin Daniels,Maud,55.43,136.08,83.91,149.69,369.68,Single-ply,SBD,M,
Boys,55.79,6,Mariano Manriquez-Lara,Quitman,53.98,140.61,81.65,131.54,353.8,Single-ply,SBD,M,
Boys,55.79,7,Quintin Taylor,Troup,55.07,131.54,79.38,136.08,347,Single-ply,SBD,M,
Boys,55.79,8,Lane Davis,Mount Pleasant Chapel Hill,55.25,127.01,74.84,136.08,337.93,Single-ply,SBD,M,
Boys,55.79,9,Henry Suggs,Frankston,55.7,127.01,70.31,136.08,333.39,Single-ply,SBD,M,
Boys,55.79,DQ,Trevor Swink,Redwater,54.7,,,,,Single-ply,SBD,M,
Boys,55.79,DQ,Julio Ramirez,Lone Oak,55.07,,,,,Single-ply,SBD,M,
Boys,55.79,DQ,Aaron Neal,Eustace,55.79,108.86,63.5,,,Single-ply,SBD,M,
Boys,59.87,1,Kasen Haynes,Lone Oak,59.24,190.51,111.13,158.76,460.4,Single-ply,SBD,M,
Boys,59.87,2,Kile Stripland,Gladewater Sabine,59.33,154.22,115.67,172.37,442.25,Single-ply,SBD,M,
Boys,59.87,3,Cannon Churchman,Palestine Westwood,59.33,185.97,104.33,149.69,439.98,Single-ply,SBD,M,
Boys,59.87,4,Kole Barrentine,Mount Vernon,59.87,156.49,83.91,174.63,415.04,Single-ply,SBD,M,
Boys,59.87,5,Elijah Webster,Queen City,57.61,158.76,81.65,170.1,410.5,Single-ply,SBD,M,
Boys,59.87,6,Zane Smith #1,Gladewater Sabine,59.51,142.88,99.79,156.49,399.16,Single-ply,SBD,M,
Boys,59.87,7,Kyle Amos,Commerce,58.88,138.35,88.45,161.03,387.82,Single-ply,SBD,M,
Boys,59.87,8,Gavin Rhea,Simms Bowie,59.51,142.88,88.45,154.22,385.55,Single-ply,SBD,M,
Boys,59.87,9,Alonzo Torres,Mount Vernon,57.79,133.81,88.45,120.2,342.46,Single-ply,SBD,M,
Boys,59.87,DQ,Karson Bynum,Linden-Kildare,59.87,,,,,Single-ply,SBD,M,
Boys,59.87,DQ,Ethan Adair,Lone Oak,59.51,,,,,Single-ply,SBD,M,
Boys,59.87,DQ,Malik Brasher,Jefferson,58.97,,,,,Single-ply,SBD,M,
Boys,59.87,DQ,Brandon Renteria,Buffalo,59.87,,,,,Single-ply,SBD,M,
Boys,67.13,1,Gage Dollins,Paris Chisum,65.95,247.21,158.76,238.14,644.1,Single-ply,SBD,M,
Boys,67.13,2,Harris Sherrod,Jewett Leon,66.13,226.8,122.47,235.87,585.13,Single-ply,SBD,M,
Boys,67.13,3,Jose Arzola,Mount Vernon,64.68,204.12,113.4,197.31,514.83,Single-ply,SBD,M,
Boys,67.13,4,Dayne Redmon,White Oak,65.68,188.24,136.08,183.7,508.02,Single-ply,SBD,M,
Boys,67.13,5,River Chaney,Quitman,66.68,190.51,108.86,190.51,489.88,Single-ply,SBD,M,
Boys,67.13,6,Ethan Fort,Lone Oak,66.13,208.65,88.45,179.17,476.27,Single-ply,SBD,M,
Boys,67.13,7,Roman Roberts,Redwater,66.86,176.9,108.86,190.51,476.27,Single-ply,SBD,M,
Boys,67.13,8,Logan Baker #3,Eustace,66.68,181.44,106.59,176.9,464.93,Single-ply,SBD,M,
Boys,67.13,9,Kaden Mahoney,Troup,66.41,190.51,99.79,158.76,449.06,Single-ply,SBD,M,
Boys,67.13,DQ,Cole Hahn,Lone Oak,66.22,,,,,Single-ply,SBD,M,
Boys,67.13,DQ,Zander Crittenden,Kerens,66.95,165.56,,,,Single-ply,SBD,M,
Boys,67.13,DQ,Matthew Beacom,Blooming Grove,66.86,,,,,Single-ply,SBD,M,
Boys,74.84,1,Joe McCallum,Lone Oak,74.75,251.74,113.4,213.19,578.33,Single-ply,SBD,M,
Boys,74.84,2,Colton Danna,Pattonville Prairiland,74.03,206.38,149.69,201.85,557.92,Single-ply,SBD,M,
Boys,74.84,3,Devin Walters,Mount Pleasant Chapel Hill,73.94,217.72,142.88,185.97,546.58,Single-ply,SBD,M,
Boys,74.84,4,Trent McBride,Kemp,73.12,222.26,117.93,204.12,544.31,Single-ply,SBD,M,
Boys,74.84,5,Jose Villanueva,Kemp,73.03,217.72,122.47,197.31,537.51,Single-ply,SBD,M,
Boys,74.84,6,Logan Shelton,Atlanta,74.84,199.58,113.4,213.19,526.17,Single-ply,SBD,M,
Boys,74.84,7,Caleb Ridgeway,Shelbyville,70.76,208.65,108.86,201.85,519.36,Single-ply,SBD,M,
Boys,74.84,8,Nathan Young,Lone Oak,72.3,204.12,106.59,197.31,508.02,Single-ply,SBD,M,
Boys,74.84,DQ,Dylan Dodson,Diana New Diana,74.3,213.19,,,,Single-ply,SBD,M,
Boys,74.84,DQ,Paul Leal,De Kalb,74.48,192.78,127.01,,,Single-ply,SBD,M,
Boys,74.84,DQ,Coy Elton,Palestine Westwood,69.4,199.58,122.47,,,Single-ply,SBD,M,
Boys,74.84,DQ,Jacob Lynch,Rice,73.39,201.85,122.47,,,Single-ply,SBD,M,
Boys,82.1,1,Dustin Newman,Mount Pleasant Chapel Hill,80.29,288.03,151.95,249.48,689.46,Single-ply,SBD,M,
Boys,82.1,2,Cain Martinez,Big Sandy,78.56,226.8,165.56,219.99,612.35,Single-ply,SBD,M,
Boys,82.1,3,Zane Freeman,Diana New Diana,80.74,222.26,131.54,235.87,589.67,Single-ply,SBD,M,
Boys,82.1,4,Amar Love,De Kalb,80.74,226.8,127.01,233.6,587.4,Single-ply,SBD,M,
Boys,82.1,5,Jesus Portillo,Kemp,78.38,244.94,147.42,192.78,585.13,Single-ply,SBD,M,
Boys,82.1,6,Colton Gable,Emory Rains,79.38,233.6,127.01,219.99,580.6,Single-ply,SBD,M,
Boys,82.1,7,Dillon Kizer,De Kalb,80.38,213.19,129.27,226.8,569.26,Single-ply,SBD,M,
Boys,82.1,8,Da'Mariyea Hamilton,Dawson,79.47,213.19,117.93,233.6,564.72,Single-ply,SBD,M,
Boys,82.1,9,K'Vionne Davis,Malakoff,82.01,244.94,111.13,195.04,551.11,Single-ply,SBD,M,
Boys,82.1,10,Blake Hollingsworth,Mount Vernon,80.1,204.12,111.13,226.8,542.04,Single-ply,SBD,M,
Boys,82.1,11,Gage Mauch,Lone Oak,80.92,224.53,120.2,183.7,528.44,Single-ply,SBD,M,
Boys,82.1,12,Caden Hoefar,Lone Oak,80.65,213.19,127.01,181.44,521.63,Single-ply,SBD,M,
Boys,89.81,1,Arie Love,De Kalb,86.18,256.28,136.08,247.21,639.57,Single-ply,SBD,M,
Boys,89.81,2,Walter Beltran,Jewett Leon,87.72,242.67,129.27,263.08,635.03,Single-ply,SBD,M,
Boys,89.81,3,John Collier,Redwater,85.28,254.01,127.01,244.94,625.96,Single-ply,SBD,M,
Boys,89.81,4,Luis Lozano,Big Sandy Harmony,88.27,254.01,129.27,217.72,601.01,Single-ply,SBD,M,
Boys,89.81,5,Micah Ward,Tatum,88.27,244.94,104.33,231.33,580.6,Single-ply,SBD,M,
Boys,89.81,6,Jordan Steele #2,White Oak,88.09,215.46,124.74,233.6,573.79,Single-ply,SBD,M,
Boys,89.81,7,Londell Howard,De Kalb,86.45,199.58,133.81,233.6,566.99,Single-ply,SBD,M,
Boys,89.81,8,Kevorian Barnes,San Augustine,82.83,199.58,113.4,238.14,551.11,Single-ply,SBD,M,
Boys,89.81,9,Kole Dooley,De Kalb,88.81,219.99,127.01,201.85,548.85,Single-ply,SBD,M,
Boys,89.81,10,Jaden Crutcher,Palestine Westwood,84.28,213.19,136.08,195.04,544.31,Single-ply,SBD,M,
Boys,89.81,DQ,Alex Marston,Malakoff Cross Roads,83.64,,,,,Single-ply,SBD,M,
Boys,99.79,1,Trey Adams,Atlanta,92.53,254.01,167.83,244.94,666.78,Single-ply,SBD,M,
Boys,99.79,2,Juan Perez #1,Frankston,96.52,244.94,136.08,260.82,641.83,Single-ply,SBD,M,
Boys,99.79,3,Jerry Montgomery,Rice,95.35,260.82,158.76,219.99,639.57,Single-ply,SBD,M,
Boys,99.79,4,Dre'Lyn Washington,Hemphill,98.16,244.94,136.08,254.01,635.03,Single-ply,SBD,M,
Boys,99.79,5,Carlos Rojas,Redwater,95.62,249.48,145.15,235.87,630.49,Single-ply,SBD,M,
Boys,99.79,6,Hayden McLeroy,Diboll,98.61,249.48,133.81,235.87,619.15,Single-ply,SBD,M,
Boys,99.79,7,Kei'Untray Hawkins,Omaha Pewitt,90.9,226.8,131.54,249.48,607.81,Single-ply,SBD,M,
Boys,99.79,8,Tarik Hussien,Redwater,95.25,217.72,149.69,215.46,582.87,Single-ply,SBD,M,
Boys,99.79,9,Carson Reneau,Scurry-Rosser,96.62,229.06,124.74,204.12,557.92,Single-ply,SBD,M,
Boys,99.79,10,Kobe Kendrick,Mineola,93.26,208.65,122.47,224.53,555.65,Single-ply,SBD,M,
Boys,99.79,DQ,Kaleb Barton,Mineola,97.25,,,,,Single-ply,SBD,M,
Boys,99.79,DQ,David Mirafuentes,Blooming Grove,97.25,,,,,Single-ply,SBD,M,
Boys,109.77,1,Cade Fant,Atlanta,107.5,258.55,158.76,254.01,671.32,Single-ply,SBD,M,
Boys,109.77,2,Corjohnta Dunbar,Commerce,102.97,249.48,158.76,254.01,662.24,Single-ply,SBD,M,
Boys,109.77,3,Saul Diaz,Rice,107.68,260.82,158.76,242.67,662.24,Single-ply,SBD,M,
Boys,109.77,4,Zane Guerra,Dawson,108.95,229.06,149.69,249.48,628.23,Single-ply,SBD,M,
Boys,109.77,5,Jaden Luhn,Lone Oak,108.86,267.62,131.54,210.92,610.08,Single-ply,SBD,M,
Boys,109.77,6,Jacob Nugent,Elkhart,109.13,254.01,136.08,215.46,605.55,Single-ply,SBD,M,
Boys,109.77,7,Ben Lancone,Palmer,106.23,219.99,154.22,226.8,601.01,Single-ply,SBD,M,
Boys,109.77,8,Elijah Sanford,Corsicana Mildred,107.41,260.82,124.74,204.12,589.67,Single-ply,SBD,M,
Boys,109.77,9,Trevian Sneed,Mineola,102.06,226.8,124.74,233.6,585.13,Single-ply,SBD,M,
Boys,109.77,10,Jordan Montalvo,Emory Rains,100.7,231.33,117.93,204.12,553.38,Single-ply,SBD,M,
Boys,109.77,DQ,Hunter Huggins,Quitman,106.96,,,,,Single-ply,SBD,M,
Boys,109.77,DQ,Braylon Simmons,San Augustine,109.68,249.48,117.93,,,Single-ply,SBD,M,
Boys,124.74,1,Angel Banda,Rice,116.57,272.16,181.44,249.48,703.07,Single-ply,SBD,M,
Boys,124.74,2,Anthony Peak,Commerce,121.11,283.5,170.1,229.06,682.66,Single-ply,SBD,M,
Boys,124.74,3,KeJuan Fite,Mineola,122.83,281.23,161.03,231.33,673.58,Single-ply,SBD,M,
Boys,124.74,4,Zamir Ruiz,Malakoff,121.11,258.55,174.63,217.72,650.91,Single-ply,SBD,M,
Boys,124.74,5,Jaden Wells,Atlanta,117.93,242.67,161.03,226.8,630.49,Single-ply,SBD,M,
Boys,124.74,6,Johnny Morales,Cayuga,123.92,226.8,129.27,238.14,594.21,Single-ply,SBD,M,
Boys,124.74,7,Donovan Barrett,Palestine Westwood,122.02,251.74,133.81,204.12,589.67,Single-ply,SBD,M,
Boys,124.74,8,Lance Robertson,Malakoff,116.21,226.8,149.69,199.58,576.06,Single-ply,SBD,M,
Boys,124.74,9,Canyon Cooksy,Wolfe City,109.95,244.94,136.08,188.24,569.26,Single-ply,SBD,M,
Boys,124.74,10,Ty Jacobs,Emory Rains,118.39,249.48,133.81,179.17,562.45,Single-ply,SBD,M,
Boys,124.74,DQ,Carlos Flores,Blooming Grove,111.77,272.16,,,,Single-ply,SBD,M,
Boys,124.74,DQ,Asa Henson,Buffalo,118.84,226.8,,,,Single-ply,SBD,M,
Boys,124.74,DQ,Alan Quinones,Mount Vernon,122.47,231.33,,,,Single-ply,SBD,M,
Boys,124.74+,1,Anthony Cork,Commerce,132.9,281.23,185.97,247.21,714.41,Single-ply,SBD,M,
Boys,124.74+,2,Quinton Johnson,Mount Vernon,136.44,278.96,154.22,272.16,705.34,Single-ply,SBD,M,
Boys,124.74+,3,Tristan Green,Gladewater Sabine,127.28,254.01,181.44,249.48,684.92,Single-ply,SBD,M,
Boys,124.74+,4,Quinton Wright,Maypearl,127.46,260.82,156.49,260.82,678.12,Single-ply,SBD,M,
Boys,124.74+,5,Cedric Davis,Queen City,163.29,283.5,136.08,249.48,669.05,Single-ply,SBD,M,
Boys,124.74+,6,Cameron Gray #3,Gladewater Sabine,141.97,238.14,181.44,226.8,646.37,Single-ply,SBD,M,
Boys,124.74+,7,Quamaine Robinson,Dawson,139.71,272.16,131.54,238.14,641.83,Single-ply,SBD,M,
Boys,124.74+,8,Dezmond Watts,San Augustine,137.44,244.94,154.22,235.87,635.03,Single-ply,SBD,M,
Boys,124.74+,9,Cj Fite,Tatum,131.09,254.01,131.54,240.4,625.96,Single-ply,SBD,M,
Boys,124.74+,10,Jason Lazaro,Overton,132.45,226.8,120.2,217.72,564.72,Single-ply,SBD,M,
Boys,124.74+,DQ,Clayton Johnson,Scurry-Rosser,132.9,,,,,Single-ply,SBD,M,
