Place,Name,Sex,BirthDate,Age,Equipment,Division,BodyweightKg,WeightClassKg,Squat1Kg,Squat2Kg,Squat3Kg,Best3SquatKg,Bench1Kg,Bench2Kg,Bench3Kg,Best3BenchKg,Deadlift1Kg,Deadlift2Kg,Deadlift3Kg,Best3DeadliftKg,TotalKg,Event,Team
1,Alejandra Barrera Garcia,F,1978-10-25,43,Wraps,Masters 40-44,54.6,56,-105,105,110,110,75,82.5,85,85,110,120,130,130,325,SBD,TEAM JOHN
1,Sandra Regina Do Amaral Ferreira,F,1977-05-18,44,Wraps,Masters 40-44,65.3,67.5,120,140,-160,140,70,-85,-85,70,165,180,190,190,400,SBD,GLADIADORES
1,Maria Madalena Maciel,F,1978-07-12,43,Wraps,Masters 40-44,71.9,75,100,-120,-120,100,-45,45,-55,45,120,125,135,135,280,SBD,A FORJA
1,Ana Rosa Bueno,F,1973-02-07,49,Wraps,Masters 45-49,63.4,67.5,117.5,127.5,135,135,55,57.5,65,65,120,132.5,140,140,340,SBD,BETO NINJA
1,Diuceia Ribeiro,F,1973-12-14,48,Wraps,Masters 45-49,73.2,75,110,-117.5,-117.5,110,55,60,-67.5,60,110,120,130,130,300,SBD,ZERO
1,Sandra Regina Do Amaral Ferreira,F,1977-05-18,44,Wraps,Open,65.3,67.5,120,140,-160,140,70,-85,-85,70,165,180,190,190,400,SBD,GLADIADORES
2,Amanda Wenzel Martins,F,1996-08-17,25,Wraps,Open,67.5,67.5,115,125,-132.5,125,55,60,-62.5,60,125,135,145,145,330,SBD,ZERO
1,Viviane Maris,F,1982-04-26,39,Wraps,Open,82.4,82.5,130,150,160,160,75,80,82.5,82.5,140,150,160,160,402.5,SBD,GLADIADORES
2,Edicleia Gabriela Das Almas,F,1997-07-28,24,Wraps,Open,82,82.5,120,130,140,140,50,55,-60,55,120,130,145,145,340,SBD,TRIBOX
1,Alejandra Barrera Garcia,F,1978-10-25,43,Raw,Masters 40-44,54.6,56,,,,,75,82.5,85,85,,,,,85,B,TEAM JOHN
1,Viviane Maris,F,1982-04-26,39,Raw,Open,82.4,82.5,,,,,75,80,82.5,82.5,,,,,82.5,B,GLADIADORES
1,Andressa Lazzarotto,F,1986-05-16,35,Raw,Open,83.8,90,,,,,70,82.5,-90,82.5,,,,,82.5,B,TEAM JHON
1,Alejandra Barrera Garcia,F,1978-10-25,43,Raw,Masters 40-44,54.6,56,,,,,,,,,110,120,130,130,130,D,TEAM JOHN
1,Carmen Lúcia De Melo,F,1966-09-27,55,Raw,Masters 55-59,80,82.5,,,,,,,,,100,115,-125,115,115,D,VALHALA
G,Marciane Dos Santos Silva,F,1990-11-19,31,Raw,Open,65.9,67.5,,,,,,,,,55,57.5,60,60,60,D,TRIBOX
1,Viviane Maris,F,1982-04-26,39,Raw,Open,82.4,82.5,,,,,,,,,140,150,160,160,160,D,GLADIADORES
2,Edicleia Gabriela Das Almas,F,1997-07-28,24,Raw,Open,82,82.5,,,,,,,,,120,130,145,145,145,D,TRIBOX
1,Alan Da Silva Osório,M,,21,Wraps,Juniors 20-23,81,82.5,-165,165,175,175,90,95,-100,95,-165,165,175,175,445,SBD,VALHALA
1,Carlos Rodrigues,M,1979-04-07,42,Wraps,Masters 40-44,107.9,110,-200,210,220,220,130,140,147.5,147.5,210,-220,220,220,587.5,SBD,GLADIADORES
1,Luiz Marcelo Ferreira,M,1972-11-17,49,Wraps,Masters 45-49,85.5,90,170,180,200,200,145,150,-152.5,150,180,190,220,220,570,SBD,GLADIADORES
1,Alysson Caue,M,,46,Wraps,Masters 45-49,94.5,100,100,140,160,160,25,,,25,25,30,,30,215,SBD,GLADIADORES
1,Andre Luis,M,1970-06-03,,Wraps,Masters 50-54,69.7,75,100,-120,130,130,110,120,-130,120,170,180,-192.5,180,430,SBD,
1,Serafim Rocha,M,1948-04-27,73,Wraps,Masters 70-74,104.5,110,80,100,120,120,90,100,-115,100,120,140,150,150,370,SBD,GLADIADORES
1,José Calazans Stresser Júnior,M,1993-06-05,28,Wraps,Open,68.2,75,180,190,200,200,120,125,130,130,190,200,205,205,535,SBD,TRIBOX
2,Luiz Henrique Fortunatti,M,1995-02-12,27,Wraps,Open,70.5,75,140,142.5,165,165,80,-100,-100,80,170,-190,190,190,435,SBD,VALHALA
1,Luiz Guilherme Kruger,M,,30,Wraps,Open,81,82.5,-165,165,175,175,-105,105,-107.5,105,155,165,175,175,455,SBD,GLADIADORES
2,Alan Da Silva Osório,M,,21,Wraps,Open,81,82.5,-165,165,175,175,90,95,-100,95,-165,165,175,175,445,SBD,VALHALA
3,João Emannuel Palmeira Da Silva,M,1997-07-18,24,Wraps,Open,81,82.5,130,-150,-150,130,-90,90,-105,90,140,-150,-150,140,360,SBD,VALHALA
1,John Wellington Vasques Rodrigues,M,1991-12-21,30,Wraps,Open,83.8,90,270,280,300,300,-170,172.5,-182.5,172.5,255,265,-280,265,737.5,SBD,TEAM JOHN
2,Rafael Pires,M,1994-11-17,27,Wraps,Open,89.7,90,190,210,225,225,130,150,-160,150,200,220,250,250,625,SBD,GLADIADORES
3,André Matheus Vieira,M,1994-06-16,27,Wraps,Open,82.8,90,180,-200,-210,180,130,140,-150,140,235,247.5,257.5,257.5,577.5,SBD,VIRUS
4,Daniel Migliori Neves Da Fontoura,M,1983-11-20,38,Wraps,Open,87,90,180,200,210,210,115,120,-130,120,190,205,-220,205,535,SBD,
5,Dilson Floriano,M,1989-09-11,,Wraps,Open,86,90,-150,150,170,170,110,-125,-125,110,200,210,220,220,500,SBD,GLADIADORES
1,Marco Antonio Faria,M,1982-06-10,39,Wraps,Open,98.7,100,260,275,285,285,160,165,-170,165,270,290,300,300,750,SBD,GLADIADORES
2,Bruno De Castro Petter,M,1990-04-09,31,Wraps,Open,94.8,100,205,220,-232.5,220,125,130,-142.5,130,250,265,-280,265,615,SBD,TEAM JOHN
1,Antônio Aparecido Antunes,M,1988-03-28,33,Wraps,Open,104.5,110,280,-300,,280,170,180,-190,180,280,300,310,310,770,SBD,ZERO
2,Marcos Roberto Scholoshaski,M,1988-06-06,33,Wraps,Open,101,110,240,-260,270,270,120,-130,130,130,240,260,265,265,665,SBD,VALHALA
DQ,Lucas Kredes,M,1994-02-18,28,Wraps,Open,110.9,125,,,,,80,120,-150,120,25,,,25,,SBD,GLADIADORES
1,Israel Comelli,M,1989-05-28,32,Wraps,Open,133.2,140,365,380,390,390,185,192.5,-200,192.5,310,-330,-330,310,892.5,SBD,BETO NINJA
2,Genner Secco,M,1995-05-05,26,Wraps,Open,130.6,140,170,200,205,205,130,140,-150,140,230,240,250,250,595,SBD,GLADIADORES
1,Kauan Henrique Dos Santos Silva,M,2008-04-10,13,Wraps,Youth,73.9,75,90,-110,110,110,40,50,-60,50,100,130,140,140,300,SBD,VALHALA
1,Weslley Jean Faria Dos Santos,M,1998-03-23,23,Raw,Juniors 20-23,66.5,67.5,,,,,80,87.5,92.5,92.5,,,,,92.5,B,GLADIADORES
1,Doralício Alves,M,1978-11-08,43,Raw,Masters 40-44,87,90,,,,,115,120,125,125,,,,,125,B,GLADIADORES
1,Eduardo Zanella Cordeiro,M,1980-11-03,41,Raw,Masters 40-44,108.7,110,,,,,160,-170,-170,160,,,,,160,B,Iron up
2,Carlos Rodrigues,M,1979-04-07,42,Raw,Masters 40-44,107.9,110,,,,,130,140,147.5,147.5,,,,,147.5,B,GLADIADORES
1,Jair Neves Da Silva,M,1979-10-29,42,Raw,Masters 40-44,118.3,125,,,,,205,210,-217.5,210,,,,,210,B,FORÇA BRUTA
1,Fabio Passarine De Brito,M,1977-07-12,44,Raw,Masters 40-44,137.6,140,,,,,120,-130,130,130,,,,,130,B,IRON UP
1,Eduardo Cordeiro De Ramos,M,1996-10-23,25,Raw,Open,73.9,75,,,,,130,-140,140,140,,,,,140,B,GLADIADORES
2,José Calazans Stresser Júnior,M,1993-06-05,28,Raw,Open,68.2,75,,,,,120,125,130,130,,,,,130,B,TRIBOX
1,André Matheus Vieira,M,1994-06-16,27,Raw,Open,82.8,90,,,,,130,140,-150,140,,,,,140,B,VIRUS
1,Eduardo Zanella Cordeiro,M,1980-11-03,41,Raw,Open,108.7,110,,,,,160,-170,-170,160,,,,,160,B,Iron up
2,Raony Kambará Rocha Osório,M,1987-03-29,34,Raw,Open,103.9,110,,,,,140,152.5,-160,152.5,,,,,152.5,B,SC
1,João Gabriel Da Silva,M,1995-08-28,26,Raw,Open,112.4,125,,,,,130,140,-150,140,,,,,140,B,GLADIADORES
1,Divonsir Costa Pereira,M,1973-05-06,48,Single-ply,Masters 45-49,,90,,,,,175,182.5,190,190,,,,,190,B,GLADIADORES
2,Rômulo Gabriel Anhaia,M,1996-11-01,25,Raw,Open,72.4,75,,,,,,,,,110,120,140,140,140,D,TRIBOX
1,Doralício Alves,M,1978-11-08,43,Raw,Masters 40-44,87,90,,,,,,,,,235,250,-260,250,250,D,GLADIADORES
1,Carlos Rodrigues,M,1979-04-07,42,Raw,Masters 40-44,107.9,110,,,,,,,,,210,-220,220,220,220,D,GLADIADORES
1,Eduardo Cordeiro De Ramos,M,1996-10-23,25,Raw,Open,73.9,75,,,,,,,,,180,200,,200,200,D,GLADIADORES
1,André Matheus Vieira,M,1994-06-16,27,Raw,Open,82.8,90,,,,,,,,,235,247.5,257.5,257.5,257.5,D,VIRUS
1,Antônio Aparecido Antunes,M,1988-03-28,33,Raw,Open,104.5,110,,,,,,,,,280,300,310,310,310,D,ZERO
2,Marcos Roberto Scholoshaski,M,1988-06-06,33,Raw,Open,101,110,,,,,,,,,240,260,265,265,265,D,VALHALA
1,Felipe Miguel Sala,M,1986-11-28,35,Raw,Open,116.4,125,,,,,,,,,300,-312.5,,300,300,D,TEAM JOHN
1,Ruan Mateus Silva Dos Santos,M,1996-06-09,25,Raw,Open,147,140+,,,,,,,,,250,260,270,270,270,D,Lajaika CT
