Division,WeightClassKg,Place,Name,Team,BodyweightKg,Best3SquatKg,Best3BenchKg,Best3DeadliftKg,TotalKg,Equipment,Event,Sex,BirthDate
Boys,51.71,1,Jacob Zea,Katy Taylor,51.71,115.67,61.23,117.93,294.84,Single-ply,SBD,M,
Boys,51.71,2,Hunter Kopecky,East Bernard,50.12,90.72,47.63,102.06,240.4,Single-ply,SBD,M,
Boys,51.71,3,Dalton Stanley,East Bernard,46.04,86.18,45.36,95.25,226.8,Single-ply,SBD,M,
Boys,59.87,1,Kaleb Rivera,East Bernard,58.06,122.47,68.04,124.74,315.25,Single-ply,SBD,M,
Boys,67.13,1,Andrew Dirba,East Bernard,63.28,176.9,95.25,167.83,439.98,Single-ply,SBD,M,
Boys,67.13,2,Brody Reinecke,East Bernard,64.64,163.29,81.65,161.03,405.97,Single-ply,SBD,M,
Boys,67.13,3,Ben Bissaillon,Katy Taylor,63.28,136.08,95.25,142.88,374.21,Single-ply,SBD,M,
Boys,67.13,4,Victor Kajopelaye,Houston Cypress Park,60.55,129.27,77.11,161.03,367.41,Single-ply,SBD,M,
Boys,67.13,5,Mason Winkler,East Bernard,66.68,136.08,74.84,140.61,351.53,Single-ply,SBD,M,
Boys,67.13,6,Colin Marcantel,East Bernard,64.86,140.61,68.04,124.74,333.39,Single-ply,SBD,M,
Boys,67.13,7,Lance Heimann,East Bernard,63.5,124.74,49.9,142.88,317.51,Single-ply,SBD,M,
Boys,67.13,DQ,Joseph Cooper,East Bernard,65.54,,81.65,,,Single-ply,SBD,M,
Boys,74.84,1,Rene Hernandez #3,Houston Cypress Falls,74.39,161.03,99.79,174.63,435.45,Single-ply,SBD,M,
Boys,74.84,2,Zander Brown,Houston Cypress Park,70.31,140.61,83.91,145.15,369.68,Single-ply,SBD,M,
Boys,82.1,1,Juan Ortiz,Houston Cypress Park,82.1,185.97,108.86,185.97,480.81,Single-ply,SBD,M,
Boys,82.1,2,Garland Thompson,Houston Cypress Falls,80.97,147.42,106.59,167.83,421.84,Single-ply,SBD,M,
Boys,82.1,3,Kevin Umanzor,Houston Cypress Falls,80.06,145.15,81.65,183.7,410.5,Single-ply,SBD,M,
Boys,82.1,4,Korbyn Rivera,East Bernard,81.19,149.69,95.25,149.69,394.63,Single-ply,SBD,M,
Boys,82.1,5,Clint McAnally,East Bernard,78.47,136.08,77.11,124.74,337.93,Single-ply,SBD,M,
Boys,89.81,1,Nick Goedde,Katy Taylor,88.45,219.99,122.47,249.48,591.94,Single-ply,SBD,M,
Boys,89.81,2,Daniel Ramirez,Katy Taylor,85.05,136.08,77.11,151.95,365.14,Single-ply,SBD,M,
Boys,89.81,3,Nick Mauer,Houston Cypress Park,82.55,,113.4,,113.4,Single-ply,B,M,
Boys,99.79,1,Christopher Martinez,Houston Cypress Park,97.98,181.44,95.25,190.51,467.2,Single-ply,SBD,M,
Boys,99.79,2,Jarra Anderson,Houston Cypress Park,99.34,172.37,104.33,167.83,444.52,Single-ply,SBD,M,
Boys,99.79,3,Landan Mowry,Katy Taylor,95.03,149.69,95.25,188.24,433.18,Single-ply,SBD,M,
Boys,99.79,4,Jayden Wallace,Houston Cypress Falls,95.25,145.15,102.06,149.69,396.89,Single-ply,SBD,M,
Boys,99.79,5,Rolie Perez,East Bernard,90.95,142.88,90.72,147.42,381.02,Single-ply,SBD,M,
Boys,109.77,1,Jahmai Edwards,Katy Taylor,106.59,226.8,142.88,235.87,605.55,Single-ply,SBD,M,
Boys,109.77,2,Aaron Goings,Houston Cypress Park,101.15,217.72,111.13,233.6,562.45,Single-ply,SBD,M,
Boys,109.77,3,Trey Brooks,Houston Cypress Falls,105.46,163.29,113.4,188.24,464.93,Single-ply,SBD,M,
Boys,109.77,4,David Montenegro,Houston Cypress Falls,107.73,174.63,86.18,192.78,453.59,Single-ply,SBD,M,
Boys,109.77,5,Angel Marrujo,Houston Cypress Park,105.01,,124.74,204.12,328.85,Single-ply,BD,M,
Boys,109.77,6,Trevor McCoy,Houston Cypress Falls,106.59,183.7,120.2,,303.91,Single-ply,SB,M,
Boys,124.74,1,Rodrigo Ramirez,Katy Taylor,114.76,210.92,120.2,217.72,548.85,Single-ply,SBD,M,
Boys,124.74,2,Elliot Jones,Houston Cypress Falls,118.39,208.65,122.47,192.78,523.9,Single-ply,SBD,M,
Boys,124.74,3,Kyle Edwards,Katy Taylor,123.6,190.51,108.86,197.31,496.68,Single-ply,SBD,M,
Boys,124.74,4,Bronson Burton,Katy Taylor,117.25,142.88,70.31,136.08,349.27,Single-ply,SBD,M,
Boys,124.74+,1,Jahangir Samandov,Katy Taylor,125.65,215.46,117.93,208.65,542.04,Single-ply,SBD,M,
Boys,124.74+,2,Julian Mora,Houston Cypress Park,126.78,204.12,111.13,219.99,535.24,Single-ply,SBD,M,
