Division,WeightClassKg,Place,Name,Team,BodyweightKg,Best3SquatKg,Best3BenchKg,Best3DeadliftKg,TotalKg,Equipment,Event,Sex,BirthDate
Boys,51.71,1,Ezekiel Chavez,Abilene,48.22,113.4,83.91,122.47,319.78,Single-ply,SBD,M,
Boys,51.71,2,Eric Broussard,Tuscola Jim Ned,49.26,111.13,70.31,117.93,299.37,Single-ply,SBD,M,
Boys,51.71,3,Dylan McDonald #4,Abilene Cooper,48.44,90.72,49.9,127.01,267.62,Single-ply,SBD,M,
Boys,51.71,4,Rajen Bhujel,Abilene Cooper,51.3,74.84,61.23,104.33,240.4,Single-ply,SBD,M,
Boys,51.71,DQ,Nick Garcia #1,Abilene,51.26,,,,,Single-ply,SBD,M,
Boys,55.79,1,Trey Jimenez,Sweetwater,55.16,136.08,81.65,136.08,353.8,Single-ply,SBD,M,
Boys,55.79,2,Roberto Hernandez,Abilene Cooper,55.75,117.93,74.84,149.69,342.46,Single-ply,SBD,M,
Boys,55.79,3,Christian Rodriquez,Tuscola Jim Ned,53.52,111.13,63.5,113.4,288.03,Single-ply,SBD,M,
Boys,55.79,4,Wyatt Kofoed,Merkel,55.07,115.67,52.16,111.13,278.96,Single-ply,SBD,M,
Boys,55.79,5,Jeremiah Quesonoz,Stamford,53.98,97.52,63.5,108.86,269.89,Single-ply,SBD,M,
Boys,55.79,6,Joseph Hester,Abilene,53.07,86.18,54.43,95.25,235.87,Single-ply,SBD,M,
Boys,59.87,1,Kendal Adames,Sweetwater,59.69,170.1,104.33,185.97,460.4,Single-ply,SBD,M,
Boys,59.87,2,Sebastian Gonzales,Sweetwater,59.78,156.49,95.25,183.7,435.45,Single-ply,SBD,M,
Boys,59.87,3,Tristen Thompson,Merkel,58.6,163.29,104.33,158.76,426.38,Single-ply,SBD,M,
Boys,59.87,4,Eric Martinez,Sweetwater,57.24,136.08,77.11,140.61,353.8,Single-ply,SBD,M,
Boys,59.87,5,Joseph Woodyard,Abilene,59.42,111.13,70.31,133.81,315.25,Single-ply,SBD,M,
Boys,59.87,6,Cameron Herron,Abilene Cooper,59.06,113.4,56.7,120.2,290.3,Single-ply,SBD,M,
Boys,59.87,7,Corbin Otto,Abilene Cooper,59.78,108.86,63.5,117.93,290.3,Single-ply,SBD,M,
Boys,59.87,8,Chase Ighe,Tuscola Jim Ned,55.84,104.33,56.7,113.4,274.42,Single-ply,SBD,M,
Boys,67.13,1,Jessus Menjivar,Abilene Cooper,64.41,183.7,108.86,192.78,485.34,Single-ply,SBD,M,
Boys,67.13,2,Andrew Bradley,Abilene Cooper,62.64,142.88,79.38,165.56,387.82,Single-ply,SBD,M,
Boys,67.13,3,D'Alan Cotton,Merkel,66.95,138.35,86.18,158.76,383.29,Single-ply,SBD,M,
Boys,67.13,4,Jackson Myers,Merkel,63.14,147.42,92.99,140.61,381.02,Single-ply,SBD,M,
Boys,67.13,5,Eathan Aguilar,Sweetwater,65.14,131.54,81.65,142.88,356.07,Single-ply,SBD,M,
Boys,67.13,6,Oscar Montoya,Merkel,65.86,133.81,72.57,129.27,335.66,Single-ply,SBD,M,
Boys,67.13,7,Maddix Salazar,Hawley,64,111.13,65.77,113.4,290.3,Single-ply,SBD,M,
Boys,67.13,8,Cruz Cantu,Stamford,60.33,106.59,58.97,113.4,278.96,Single-ply,SBD,M,
Boys,67.13,9,Matthew Richard,Anson,63.87,97.52,61.23,115.67,274.42,Single-ply,SBD,M,
Boys,67.13,DQ,Ramiro Aguilar,Hawley,67.13,,,,,Single-ply,SBD,M,
Boys,67.13,DQ,Blake Scott,Sweetwater,61.69,,,,,Single-ply,SBD,M,
Boys,67.13,DQ,Tony Leyva,Merkel,67.13,,,,,Single-ply,SBD,M,
Boys,67.13,DQ,Xavier Soliz,Anson,61.05,142.88,,,,Single-ply,SBD,M,
Boys,74.84,1,Jesse Pete,Stamford,70.08,181.44,113.4,185.97,480.81,Single-ply,SBD,M,
Boys,74.84,2,Matthew Lozano,Anson,72.85,181.44,117.93,158.76,458.13,Single-ply,SBD,M,
Boys,74.84,3,Ethan Brockman,Sweetwater,73.84,183.7,88.45,185.97,458.13,Single-ply,SBD,M,
Boys,74.84,4,Nimfasha Olivier,Abilene Cooper,73.21,183.7,79.38,183.7,446.79,Single-ply,SBD,M,
Boys,74.84,5,Jorge Hernandez,Abilene,74.84,156.49,97.52,185.97,439.98,Single-ply,SBD,M,
Boys,74.84,6,Isaac Brann,Anson,73.3,158.76,88.45,172.37,419.57,Single-ply,SBD,M,
Boys,74.84,7,Nathaniel Guzman,Abilene,71.21,149.69,83.91,154.22,387.82,Single-ply,SBD,M,
Boys,74.84,8,Justin Turk,Abilene,74.84,140.61,74.84,163.29,378.75,Single-ply,SBD,M,
Boys,74.84,9,Jeshari Houston,Abilene,73.94,145.15,92.99,138.35,376.48,Single-ply,SBD,M,
Boys,74.84,10,Lawrence Diles,Abilene Cooper,69.44,136.08,83.91,149.69,369.68,Single-ply,SBD,M,
Boys,74.84,11,Ethan Estes,Tuscola Jim Ned,67.95,142.88,83.91,133.81,360.61,Single-ply,SBD,M,
Boys,74.84,12,Mark Leyva,Merkel,73.12,124.74,77.11,151.95,353.8,Single-ply,SBD,M,
Boys,74.84,13,Evan Mier,Merkel,69.31,115.67,58.97,113.4,288.03,Single-ply,SBD,M,
Boys,74.84,14,Truett Ekdahl,Stamford,70.67,83.91,54.43,102.06,240.4,Single-ply,SBD,M,
Boys,82.1,1,Emile Niyonkuru,Abilene Cooper,82.01,204.12,131.54,213.19,548.85,Single-ply,SBD,M,
Boys,82.1,2,Cedrick Brown,Sweetwater,77.2,163.29,95.25,204.12,462.66,Single-ply,SBD,M,
Boys,82.1,3,Matthew Ezzell,Abilene,79.83,176.9,104.33,172.37,453.59,Single-ply,SBD,M,
Boys,82.1,4,Johnathan Vanwinkle,Abilene Cooper,75.8,158.76,92.99,183.7,435.45,Single-ply,SBD,M,
Boys,82.1,5,Jacobe Moore,Abilene Cooper,79.2,165.56,90.72,167.83,424.11,Single-ply,SBD,M,
Boys,82.1,6,Brady Miller,Abilene Cooper,76.11,165.56,90.72,165.56,421.84,Single-ply,SBD,M,
Boys,82.1,7,Hez Parker,Hawley,80.29,165.56,97.52,158.76,421.84,Single-ply,SBD,M,
Boys,82.1,8,Carson England,Abilene Cooper,80.47,154.22,83.91,158.76,396.89,Single-ply,SBD,M,
Boys,82.1,9,Maison Dickinson,Abilene,81.65,142.88,92.99,147.42,383.29,Single-ply,SBD,M,
Boys,82.1,10,Johnnie Ward,Stamford,80.74,122.47,74.84,142.88,340.19,Single-ply,SBD,M,
Boys,89.81,1,Jacob Deax,Abilene Cooper,86.91,206.38,122.47,217.72,546.58,Single-ply,SBD,M,
Boys,89.81,2,James Griffin,Abilene Cooper,88.59,204.12,117.93,213.19,535.24,Single-ply,SBD,M,
Boys,89.81,3,Phonzo Dotson,Abilene,88.9,195.04,97.52,192.78,485.34,Single-ply,SBD,M,
Boys,89.81,4,Tyler Stevens,Tuscola Jim Ned,86.55,172.37,102.06,188.24,462.66,Single-ply,SBD,M,
Boys,89.81,5,Kade Miller,Hawley,82.55,158.76,95.25,158.76,412.77,Single-ply,SBD,M,
Boys,89.81,DQ,Kobe Martinez,Hawley,86.73,,,,,Single-ply,SBD,M,
Boys,89.81,DQ,Lucas Moreno,Hawley,83.91,,,,,Single-ply,SBD,M,
Boys,89.81,DQ,Jackson Wilson,Abilene,88.9,,,,,Single-ply,SBD,M,
Boys,99.79,1,Arthur Murillo,Tuscola Jim Ned,92.17,244.94,158.76,244.94,648.64,Single-ply,SBD,M,
Boys,99.79,2,Caleb Moreno,Anson,95.07,165.56,108.86,176.9,451.32,Single-ply,SBD,M,
Boys,99.79,3,Robin Tacker,Anson,89.9,183.7,92.99,142.88,419.57,Single-ply,SBD,M,
Boys,99.79,4,Ryan Johnson #19,Abilene,99.34,172.37,83.91,149.69,405.97,Single-ply,SBD,M,
Boys,99.79,5,Adan Navarette,Merkel,92.17,136.08,83.91,165.56,385.55,Single-ply,SBD,M,
Boys,99.79,6,Trace Thruman,Stamford,94.98,108.86,61.23,111.13,281.23,Single-ply,SBD,M,
Boys,99.79,DQ,Caleb Sutton,Hawley,99.79,,,,,Single-ply,SBD,M,
Boys,109.77,1,Ely Barrera,Sweetwater,106.68,204.12,106.59,249.48,560.19,Single-ply,SBD,M,
Boys,109.77,2,Dylan Worgull,Abilene,104.78,215.46,124.74,210.92,551.11,Single-ply,SBD,M,
Boys,109.77,3,Colby Ernst,Abilene,107.95,217.72,127.01,188.24,532.97,Single-ply,SBD,M,
Boys,109.77,4,Miguel Silva,Abilene Cooper,107,215.46,108.86,190.51,514.83,Single-ply,SBD,M,
Boys,109.77,5,Joe Galvan,Anson,99.97,197.31,106.59,183.7,487.61,Single-ply,SBD,M,
Boys,109.77,6,Zach Killam,Abilene,108.86,195.04,92.99,176.9,464.93,Single-ply,SBD,M,
Boys,109.77,7,Steven Covasos,Stamford,106.41,158.76,86.18,165.56,410.5,Single-ply,SBD,M,
Boys,109.77,DQ,JaQuinton Gates,Abilene Cooper,103.6,,,,,Single-ply,SBD,M,
Boys,109.77,DQ,Jeremy Le,Sweetwater,105.23,,,,,Single-ply,SBD,M,
Boys,124.74,1,Lucas Gomez,Abilene,117.93,249.48,138.35,238.14,625.96,Single-ply,SBD,M,
Boys,124.74,2,Thad Hazlewood,Hawley,123.47,240.4,147.42,215.46,603.28,Single-ply,SBD,M,
Boys,124.74,3,Bradley Byrne,Abilene,113.4,238.14,117.93,208.65,564.72,Single-ply,SBD,M,
Boys,124.74,4,Jayston Jones,Abilene Cooper,124.6,192.78,158.76,181.44,532.97,Single-ply,SBD,M,
Boys,124.74,5,Gatlyn Cooper,Tuscola Jim Ned,122.47,192.78,108.86,226.8,528.44,Single-ply,SBD,M,
Boys,124.74,6,Julian Garcia,Abilene,111.58,213.19,127.01,185.97,526.17,Single-ply,SBD,M,
Boys,124.74,7,Cody Farley,Abilene Cooper,116.21,197.31,117.93,199.58,514.83,Single-ply,SBD,M,
Boys,124.74,8,Jonathan Modica,Abilene Cooper,117.75,172.37,106.59,142.88,421.84,Single-ply,SBD,M,
Boys,124.74,9,Ben Gomez,Abilene,115.21,165.56,83.91,165.56,415.04,Single-ply,SBD,M,
Boys,124.74,10,Aaron Duran,Stamford,120.75,154.22,68.04,145.15,367.41,Single-ply,SBD,M,
Boys,124.74,DQ,Dakota Nichols,Hawley,124.74,,,,,Single-ply,SBD,M,
Boys,124.74,DQ,Jakoby Castro,Stamford,124.74,,,,,Single-ply,SBD,M,
Boys,124.74+,1,Devon Cosby,Abilene Cooper,133.22,254.01,156.49,251.74,662.24,Single-ply,SBD,M,
Boys,124.74+,2,Austin Escobar,Merkel,160.57,229.06,149.69,240.4,619.15,Single-ply,SBD,M,
Boys,124.74+,3,Khalil Spivey,Abilene,149.69,272.16,113.4,204.12,589.67,Single-ply,SBD,M,
Boys,124.74+,4,Gage McVey,Abilene Cooper,128,222.26,151.95,204.12,578.33,Single-ply,SBD,M,
Boys,124.74+,5,Jaime Rodriguez,Abilene,126.55,219.99,122.47,199.58,542.04,Single-ply,SBD,M,
Boys,124.74+,6,Daniel Salazar,Abilene Cooper,129.05,226.8,136.08,172.37,535.24,Single-ply,SBD,M,
Boys,124.74+,7,Angel Longoria #1,Sweetwater,137.26,183.7,136.08,206.38,526.17,Single-ply,SBD,M,
Boys,124.74+,DQ,Jaxon O'Kelly,Merkel,130.18,,,,,Single-ply,SBD,M,
Boys,124.74+,DQ,Kody Ramsey,Hawley,125.65,,,,,Single-ply,SBD,M,
