Division,WeightClassKg,Place,Name,Team,BodyweightKg,Best3SquatKg,Best3BenchKg,Best3DeadliftKg,TotalKg,Equipment,Event,Sex,BirthDate
Boys,59.87,DQ,Collin Newton,Saratoga West Hardin,56.88,,,,,Single-ply,SBD,M,
Boys,59.87,DQ,Brice Blanchard,Saratoga West Hardin,59.19,90.72,68.04,,,Single-ply,SBD,M,
Boys,67.13,1,Lucas Johnson,Dayton,66.59,149.69,68.04,165.56,383.29,Single-ply,SBD,M,
Boys,67.13,2,Beau Fowler,Liberty,66.45,133.81,86.18,142.88,362.87,Single-ply,SBD,M,
Boys,67.13,3,Carlton Hebert,Saratoga West Hardin,62.78,72.57,54.43,122.47,249.48,Single-ply,SBD,M,
Boys,67.13,4,Sterling Gallander,Saratoga West Hardin,59.96,68.04,56.7,97.52,222.26,Single-ply,SBD,M,
Boys,67.13,DQ,Chris Dilling,Huffman Hargrave,66.27,,,,,Single-ply,SBD,M,
Boys,67.13,DQ,Austin Collier,Saratoga West Hardin,64.23,,,,,Single-ply,SBD,M,
Boys,67.13,DQ,Jose Mungia,Saratoga West Hardin,63.28,,,,,Single-ply,SBD,M,
Boys,74.84,1,Manuel Freeman,Liberty,70.44,165.56,92.99,165.56,424.11,Single-ply,SBD,M,
Boys,74.84,2,Bradley Brown,Saratoga West Hardin,74.39,142.88,95.25,142.88,381.02,Single-ply,SBD,M,
Boys,74.84,3,Blake Scarborough,Huffman Hargrave,70.03,136.08,92.99,147.42,376.48,Single-ply,SBD,M,
Boys,74.84,4,Clayton Garcia,Liberty,74.66,127.01,70.31,179.17,376.48,Single-ply,SBD,M,
Boys,74.84,5,Dominic Pavliska,Liberty,73.07,129.27,65.77,147.42,342.46,Single-ply,SBD,M,
Boys,74.84,6,Cash Davis,Huffman Hargrave,69.31,129.27,70.31,136.08,335.66,Single-ply,SBD,M,
Boys,74.84,7,Ethan Bradt,Dayton,70.85,97.52,52.16,136.08,285.76,Single-ply,SBD,M,
Boys,74.84,DQ,Austin Johnson,Huffman Hargrave,70.62,,,,,Single-ply,SBD,M,
Boys,82.1,1,Ben Lannom,Liberty,75.84,145.15,83.91,183.7,412.77,Single-ply,SBD,M,
Boys,82.1,2,Cade Jordan,Liberty,78.02,129.27,79.38,147.42,356.07,Single-ply,SBD,M,
Boys,82.1,3,Levi Brown,Dayton,78.56,111.13,58.97,111.13,281.23,Single-ply,SBD,M,
Boys,82.1,DQ,Elijah Gutierrez,Huffman Hargrave,77.93,,,,,Single-ply,SBD,M,
Boys,89.81,DQ,Tyler Westbrook,Huffman Hargrave,89.45,,,,,Single-ply,SBD,M,
Boys,99.79,1,Micha Hanna,Huffman Hargrave,97.61,213.19,129.27,192.78,535.24,Single-ply,SBD,M,
Boys,99.79,2,Luis Moreno,Liberty,92.26,201.85,113.4,199.58,514.83,Single-ply,SBD,M,
Boys,99.79,3,Joe Garcia,Liberty,96.84,190.51,120.2,190.51,501.22,Single-ply,SBD,M,
Boys,99.79,4,Titus Bell,Liberty,96.3,170.1,108.86,185.97,464.93,Single-ply,SBD,M,
Boys,99.79,5,Kayden Miller,Huffman Hargrave,94.98,158.76,113.4,170.1,442.25,Single-ply,SBD,M,
Boys,109.77,1,Ty Griffith,Huffman Hargrave,106.59,192.78,138.35,233.6,564.72,Single-ply,SBD,M,
Boys,109.77,2,Noah Brown,Dayton,101.15,165.56,106.59,208.65,480.81,Single-ply,SBD,M,
Boys,109.77,3,Cord Carter,Liberty,108.41,183.7,108.86,183.7,476.27,Single-ply,SBD,M,
Boys,124.74,1,Zach Pitts,Huffman Hargrave,118.57,233.6,149.69,204.12,587.4,Single-ply,SBD,M,
Boys,124.74,2,Zach Davis,Liberty,120.56,195.04,120.2,188.24,503.49,Single-ply,SBD,M,
Boys,139.71,1,Seth Sterns,Liberty,138.25,263.08,151.95,226.8,641.83,Single-ply,SBD,M,
Boys,139.71,2,Alexander Romero,Dayton,136.98,195.04,102.06,179.17,476.27,Single-ply,SBD,M,
Boys,139.71+,1,Breck Machala,Huffman Hargrave,143.06,249.48,151.95,233.6,635.03,Single-ply,SBD,M,
Boys,139.71+,2,Juan Sanchez #10,Saratoga West Hardin,151.18,192.78,108.86,210.92,512.56,Single-ply,SBD,M,
