Division,WeightClassKg,Place,Name,Team,BodyweightKg,Best3SquatKg,Best3BenchKg,Best3DeadliftKg,TotalKg,Equipment,Event,Sex,BirthDate
Boys,51.71,1,Felipe Garza,McAllen,50.58,181.44,120.2,167.83,469.47,Single-ply,SBD,M,
Boys,51.71,2,Dante Silva,Mission Sharyland,51.44,136.08,86.18,145.15,367.41,Single-ply,SBD,M,
Boys,51.71,3,Dahel Burrows,Sharyland Pioneer,48.99,111.13,77.11,133.81,322.05,Single-ply,SBD,M,
Boys,51.71,4,Daniel Limon,La Joya Juarez-Lincoln,50.8,102.06,58.97,122.47,283.5,Single-ply,SBD,M,
Boys,51.71,5,Norbert Garza,La Joya,51.62,83.91,61.23,131.54,276.69,Single-ply,SBD,M,
Boys,51.71,6,Carlos Cantu,McAllen Memorial,44.86,99.79,52.16,102.06,254.01,Single-ply,SBD,M,
Boys,55.79,1,Seth DeLeon,McAllen Memorial,55.38,111.13,68.04,149.69,328.85,Single-ply,SBD,M,
Boys,55.79,2,Eramso Rodriguez,La Joya,54.7,131.54,58.97,129.27,319.78,Single-ply,SBD,M,
Boys,55.79,3,Rosbel Vera,Mission,54.88,88.45,74.84,102.06,265.35,Single-ply,SBD,M,
Boys,55.79,4,Ronni Vera,Mission,52.25,86.18,63.5,111.13,260.82,Single-ply,SBD,M,
Boys,59.87,1,Luis Garcia #9,Sharyland Pioneer,58.01,183.7,102.06,190.51,476.27,Single-ply,SBD,M,
Boys,59.87,2,Isaac Lozano,Roma,59.6,174.63,102.06,181.44,458.13,Single-ply,SBD,M,
Boys,59.87,3,Jonah Henderson,McAllen,57.97,142.88,88.45,147.42,378.75,Single-ply,SBD,M,
Boys,59.87,4,Eugenio Chavez,Mission Sharyland,58.47,136.08,83.91,154.22,374.21,Single-ply,SBD,M,
Boys,59.87,5,Emilio Cantu,La Joya,57.65,136.08,74.84,136.08,347,Single-ply,SBD,M,
Boys,59.87,6,Santos Castellano,Mission,58.65,111.13,74.84,142.88,328.85,Single-ply,SBD,M,
Boys,59.87,7,Alex Montemayor,Mission Sharyland,57.74,124.74,74.84,117.93,317.51,Single-ply,SBD,M,
Boys,59.87,8,Branden Garcia,La Joya,59.83,88.45,61.23,108.86,258.55,Single-ply,SBD,M,
Boys,67.13,1,Nick Moreno,La Joya Juarez-Lincoln,66.54,235.87,122.47,213.19,571.53,Single-ply,SBD,M,
Boys,67.13,2,Isaias Salinas,McAllen Memorial,66.22,183.7,122.47,213.19,519.36,Single-ply,SBD,M,
Boys,67.13,3,Thomas Rivera,Sharyland Pioneer,66.72,185.97,120.2,190.51,496.68,Single-ply,SBD,M,
Boys,67.13,4,Marcelo Velasco,Mission Sharyland,65.14,163.29,111.13,201.85,476.27,Single-ply,SBD,M,
Boys,67.13,5,Sergio Martinez,Sharyland Pioneer,66.95,170.1,106.59,192.78,469.47,Single-ply,SBD,M,
Boys,67.13,6,Eduardo Ordaz,Mission Veterans Memorial,67,174.63,111.13,172.37,458.13,Single-ply,SBD,M,
Boys,67.13,7,Eleazar Gutierrez,Roma,65.05,174.63,97.52,181.44,453.59,Single-ply,SBD,M,
Boys,67.13,8,Senon Moya,Edinburg Economedes,66.5,147.42,99.79,185.97,433.18,Single-ply,SBD,M,
Boys,67.13,9,Pablo López,Mission Veterans Memorial,66.9,176.9,92.99,158.76,428.64,Single-ply,SBD,M,
Boys,67.13,10,Adan De La Cruz,McAllen Rowe,65.45,158.76,104.33,163.29,426.38,Single-ply,SBD,M,
Boys,67.13,11,Jimmy Quintero,Mission,66.32,149.69,106.59,167.83,424.11,Single-ply,SBD,M,
Boys,67.13,12,Jose Williams,La Joya Juarez-Lincoln,63.5,145.15,99.79,172.37,417.3,Single-ply,SBD,M,
Boys,67.13,13,Matthew Sanchez,Mission Veterans Memorial,60.74,167.83,83.91,149.69,401.43,Single-ply,SBD,M,
Boys,67.13,14,Javier Longoria,La Joya,61.05,122.47,88.45,170.1,381.02,Single-ply,SBD,M,
Boys,67.13,15,Pilar Garcia,Rio Grande City,64.46,129.27,83.91,147.42,360.61,Single-ply,SBD,M,
Boys,67.13,16,Francisco Lopez,McAllen Rowe,65.68,115.67,83.91,142.88,342.46,Single-ply,SBD,M,
Boys,67.13,17,Paulo Garza,Sharyland Pioneer,62.69,102.06,61.23,136.08,299.37,Single-ply,SBD,M,
Boys,67.13,18,Marcelo Bartolomeo,Mission Sharyland,65.95,170.1,115.67,,285.76,Single-ply,SB,M,
Boys,67.13,DQ,Andrew Knoblach,Sharyland Pioneer,65.54,,,,,Single-ply,SBD,M,
Boys,67.13,DQ,Thomas Marina,Sharyland Pioneer,66.13,183.7,97.52,,,Single-ply,SBD,M,
Boys,74.84,1,Marckopolo Cavazos,Mission Veterans Memorial,73.39,242.67,113.4,249.48,605.55,Single-ply,SBD,M,
Boys,74.84,2,Alonso Bravo,Mission Veterans Memorial,74.53,231.33,154.22,204.12,589.67,Single-ply,SBD,M,
Boys,74.84,3,Javier Ornelas,Mission Veterans Memorial,74.07,208.65,131.54,213.19,553.38,Single-ply,SBD,M,
Boys,74.84,4,Daniel Anzaldua,Mission Sharyland,74.48,201.85,151.95,183.7,537.51,Single-ply,SBD,M,
Boys,74.84,5,Jerry Rodriguez,McAllen Memorial,73.12,195.04,120.2,172.37,487.61,Single-ply,SBD,M,
Boys,74.84,6,Enruique Ordaz,Mission Veterans Memorial,72.76,183.7,106.59,183.7,474,Single-ply,SBD,M,
Boys,74.84,7,Christian Garcia,Rio Grande City,74.3,167.83,106.59,183.7,458.13,Single-ply,SBD,M,
Boys,74.84,8,Emmanuel Vega,Mission Sharyland,74.84,183.7,95.25,176.9,455.86,Single-ply,SBD,M,
Boys,74.84,9,Brandon Arredondo,Rio Grande City,70.85,165.56,92.99,185.97,444.52,Single-ply,SBD,M,
Boys,74.84,10,Isaiah Castro,Mercedes,74.21,167.83,106.59,161.03,435.45,Single-ply,SBD,M,
Boys,74.84,11,Diego Guevara,Edinburg Economedes,70.22,158.76,88.45,170.1,417.3,Single-ply,SBD,M,
Boys,74.84,12,Nicolas Moreno,Mission Sharyland,74.8,165.56,81.65,170.1,417.3,Single-ply,SBD,M,
Boys,74.84,13,Damian Villapando,La Joya Juarez-Lincoln,68.13,151.95,97.52,142.88,392.36,Single-ply,SBD,M,
Boys,74.84,14,Isaac Santoya,McAllen,73.62,154.22,83.91,151.95,390.09,Single-ply,SBD,M,
Boys,74.84,15,Juan Hernandez #26,La Joya,67.68,133.81,86.18,147.42,367.41,Single-ply,SBD,M,
Boys,74.84,16,Raul Sevella,Rio Grande City,71.62,147.42,81.65,129.27,358.34,Single-ply,SBD,M,
Boys,74.84,17,Derek Valenzuela,Mission Veterans Memorial,70.35,106.59,77.11,131.54,315.25,Single-ply,SBD,M,
Boys,82.1,1,Fidencio Ortega,La Joya Juarez-Lincoln,79.97,244.94,142.88,204.12,591.94,Single-ply,SBD,M,
Boys,82.1,2,Josue Gomez,Mission,78.88,201.85,122.47,195.04,519.36,Single-ply,SBD,M,
Boys,82.1,3,Miguel Rodriguez,Edinburg Economedes,79.97,192.78,117.93,208.65,519.36,Single-ply,SBD,M,
Boys,82.1,4,Marcelo Cantu,Mission Veterans Memorial,81.1,206.38,97.52,210.92,514.83,Single-ply,SBD,M,
Boys,82.1,5,Raul Galvan,Rio Grande City Grulla,82.05,208.65,115.67,190.51,514.83,Single-ply,SBD,M,
Boys,82.1,6,Bryan Fuentes-Cortez,Sharyland Pioneer,80.33,204.12,102.06,188.24,494.42,Single-ply,SBD,M,
Boys,82.1,7,Erasmo Leal,Rio Grande City,75.8,158.76,97.52,183.7,439.98,Single-ply,SBD,M,
Boys,82.1,8,Patricio Garcia,McAllen Rowe,79.29,156.49,122.47,161.03,439.98,Single-ply,SBD,M,
Boys,82.1,9,Rene Martinez,Mission Sharyland,75.02,165.56,92.99,179.17,437.72,Single-ply,SBD,M,
Boys,82.1,10,Eresto Garcia,Rio Grande City,81.1,156.49,102.06,161.03,419.57,Single-ply,SBD,M,
Boys,82.1,11,Eric Requenez,McAllen Rowe,79.83,158.76,102.06,138.35,399.16,Single-ply,SBD,M,
Boys,82.1,12,Sebastian Garza,Roma,81.24,142.88,88.45,149.69,381.02,Single-ply,SBD,M,
Boys,82.1,13,Zoe Gonz,Sharyland Pioneer,79.79,133.81,61.23,183.7,378.75,Single-ply,SBD,M,
Boys,82.1,14,Emiliano Bocaegra,McAllen,79.29,142.88,74.84,108.86,326.59,Single-ply,SBD,M,
Boys,82.1,DQ,Isaiah Mata,McAllen Rowe,79.65,163.29,,,,Single-ply,SBD,M,
Boys,82.1,DQ,Othon Elizondo,Edinburg Economedes,81.42,210.92,113.4,,,Single-ply,SBD,M,
Boys,89.81,1,Miguel Jimenez,Mercedes,88.13,288.03,154.22,260.82,703.07,Single-ply,SBD,M,
Boys,89.81,2,Zeek Cuadors,Mission,89.36,265.35,145.15,235.87,646.37,Single-ply,SBD,M,
Boys,89.81,3,Jose Cavazos,McAllen Rowe,87.91,242.67,151.95,201.85,596.47,Single-ply,SBD,M,
Boys,89.81,4,Tristan Solis,Rio Grande City,89.45,206.38,156.49,224.53,587.4,Single-ply,SBD,M,
Boys,89.81,5,Jorge Torres,Roma,89.45,226.8,149.69,190.51,566.99,Single-ply,SBD,M,
Boys,89.81,6,Darwinn Rodriguez,Edinburg Economedes,89.27,204.12,138.35,208.65,551.11,Single-ply,SBD,M,
Boys,89.81,7,Demitri Ayala,McAllen,86.23,210.92,129.27,192.78,532.97,Single-ply,SBD,M,
Boys,89.81,8,Jonathon Rocha,Mission,85.55,195.04,117.93,195.04,508.02,Single-ply,SBD,M,
Boys,89.81,9,Daniel De La Cruz,McAllen Memorial,87.14,192.78,120.2,190.51,503.49,Single-ply,SBD,M,
Boys,89.81,10,Quincy Handy,Mission Veterans Memorial,87.45,195.04,95.25,213.19,503.49,Single-ply,SBD,M,
Boys,89.81,11,Jesus Gonzalez,La Joya,89.68,185.97,124.74,185.97,496.68,Single-ply,SBD,M,
Boys,89.81,12,Deven Becerra,Rio Grande City Grulla,88.5,183.7,95.25,147.42,426.38,Single-ply,SBD,M,
Boys,89.81,13,Diego Barrera,McAllen,83.96,136.08,79.38,195.04,410.5,Single-ply,SBD,M,
Boys,89.81,DQ,Anthony Del Angel,Sharyland Pioneer,89.81,240.4,,,,Single-ply,SBD,M,
Boys,99.79,1,Roan Galvan,Mercedes,98.25,294.84,176.9,242.67,714.41,Single-ply,SBD,M,
Boys,99.79,2,Christian Hernandez,Mission,99.11,294.84,154.22,240.4,689.46,Single-ply,SBD,M,
Boys,99.79,3,Francisco Gomez,Mission Veterans Memorial,94.44,235.87,142.88,201.85,580.6,Single-ply,SBD,M,
Boys,99.79,4,Ethan Anciso,Mercedes,93.03,215.46,133.81,213.19,562.45,Single-ply,SBD,M,
Boys,99.79,5,Artemio Belmontes,Roma,98.84,235.87,117.93,208.65,562.45,Single-ply,SBD,M,
Boys,99.79,6,Manuel Reyna,Edinburg Economedes,97.84,224.53,113.4,204.12,542.04,Single-ply,SBD,M,
Boys,99.79,7,Camilo Galaviz,Sharyland Pioneer,94.89,206.38,117.93,195.04,519.36,Single-ply,SBD,M,
Boys,99.79,8,Austin Yaniz,McAllen,96.66,195.04,127.01,192.78,514.83,Single-ply,SBD,M,
Boys,99.79,9,Israel Nicanor,Sharyland Pioneer,95.89,204.12,113.4,192.78,510.29,Single-ply,SBD,M,
Boys,99.79,10,Hugo Borroso,Sharyland Pioneer,97.02,181.44,111.13,213.19,505.76,Single-ply,SBD,M,
Boys,99.79,11,Aaron Benavidez,Rio Grande City,95.35,192.78,115.67,190.51,498.95,Single-ply,SBD,M,
Boys,99.79,12,Jesus Rios,Rio Grande City,95.66,183.7,106.59,204.12,494.42,Single-ply,SBD,M,
Boys,99.79,13,Roman Vasquez,Roma,94.8,197.31,115.67,167.83,480.81,Single-ply,SBD,M,
Boys,99.79,14,Daniel Melchor,Rio Grande City Grulla,99.79,179.17,108.86,176.9,464.93,Single-ply,SBD,M,
Boys,99.79,15,Josef Baldado,Mission Sharyland,93.35,167.83,92.99,165.56,426.38,Single-ply,SBD,M,
Boys,99.79,16,Victor Hernandez,La Joya Juarez-Lincoln,90.08,161.03,97.52,149.69,408.23,Single-ply,SBD,M,
Boys,99.79,17,Demetrio Talamantes,McAllen Rowe,97.2,158.76,83.91,154.22,396.89,Single-ply,SBD,M,
Boys,99.79,18,Alejandro Rodriguez,McAllen Rowe,99.7,149.69,88.45,149.69,387.82,Single-ply,SBD,M,
Boys,99.79,19,Alejandro Bosada,McAllen Rowe,92.67,149.69,77.11,133.81,360.61,Single-ply,SBD,M,
Boys,99.79,DQ,Juan Cantu,McAllen,99.56,238.14,,,,Single-ply,SBD,M,
Boys,109.77,1,Joseph Guerra,Edinburg Economedes,106.19,249.48,158.76,235.87,644.1,Single-ply,SBD,M,
Boys,109.77,2,Abelino Lopez,Rio Grande City Grulla,109.59,249.48,142.88,215.46,607.81,Single-ply,SBD,M,
Boys,109.77,3,Jj Johnson,McAllen Memorial,104.42,249.48,142.88,206.38,598.74,Single-ply,SBD,M,
Boys,109.77,4,Brandon Lopez,Rio Grande City Grulla,105.82,219.99,124.74,192.78,537.51,Single-ply,SBD,M,
Boys,109.77,5,Homer Munoz,La Joya,103.19,197.31,102.06,197.31,496.68,Single-ply,SBD,M,
Boys,109.77,6,Alex Tovar,La Joya Juarez-Lincoln,102.42,154.22,106.59,172.37,433.18,Single-ply,SBD,M,
Boys,109.77,7,Luis Rodriguez,Mission,107.09,151.95,102.06,165.56,419.57,Single-ply,SBD,M,
Boys,109.77,8,Antonio Zuniga,La Joya,101.92,167.83,81.65,165.56,415.04,Single-ply,SBD,M,
Boys,124.74,1,Carlos Rodriguez #13,McAllen Memorial,117.62,256.28,167.83,231.33,655.44,Single-ply,SBD,M,
Boys,124.74,2,Aiden Safford,Rio Grande City,120.75,249.48,161.03,231.33,641.83,Single-ply,SBD,M,
Boys,124.74,3,Jesus Garcia #11,Roma,114.62,254.01,156.49,226.8,637.3,Single-ply,SBD,M,
Boys,124.74,4,Omar Garcia,La Joya Juarez-Lincoln,120.34,240.4,151.95,226.8,619.15,Single-ply,SBD,M,
Boys,124.74,5,Gabriel Dougherty,McAllen Rowe,118.02,224.53,151.95,226.8,603.28,Single-ply,SBD,M,
Boys,124.74,6,Ezeliel Coronado,La Joya,114.94,242.67,127.01,226.8,596.47,Single-ply,SBD,M,
Boys,124.74,7,Mark Abila,Mission,116.75,238.14,156.49,201.85,596.47,Single-ply,SBD,M,
Boys,124.74,8,Ricky Flores,Rio Grande City,115.08,233.6,131.54,206.38,571.53,Single-ply,SBD,M,
Boys,124.74,9,Benji Rios,Rio Grande City Grulla,118.8,231.33,136.08,192.78,560.19,Single-ply,SBD,M,
Boys,124.74,10,Barrett Rabel,Mercedes,115.48,219.99,120.2,190.51,530.7,Single-ply,SBD,M,
Boys,124.74,11,Jaxson Quintanilla,McAllen,124.65,188.24,151.95,165.56,505.76,Single-ply,SBD,M,
Boys,124.74,12,Ricardo De Leon,Edinburg Economedes,115.62,183.7,104.33,163.29,451.32,Single-ply,SBD,M,
Boys,124.74,13,Jose Portales,La Joya,124.33,185.97,95.25,147.42,428.64,Single-ply,SBD,M,
Boys,124.74,14,Aaron Izaguirre,McAllen,124.15,156.49,90.72,156.49,403.7,Single-ply,SBD,M,
Boys,124.74,DQ,Ethan Hinojosa,Sharyland Pioneer,116.71,,,,,Single-ply,SBD,M,
Boys,139.71,1,Abisai Tijerina,Edinburg Economedes,132.72,294.84,145.15,240.4,680.39,Single-ply,SBD,M,
Boys,139.71,2,Thomas Domian,McAllen Memorial,130.41,251.74,185.97,199.58,637.3,Single-ply,SBD,M,
Boys,139.71,3,Jose Silva,Roma,127.87,226.8,124.74,213.19,564.72,Single-ply,SBD,M,
Boys,139.71,4,Jose Garza,Roma,128.5,204.12,117.93,217.72,539.77,Single-ply,SBD,M,
Boys,139.71,5,Adalberto Sanchez,Sharyland Pioneer,137.76,219.99,127.01,183.7,530.7,Single-ply,SBD,M,
Boys,139.71,6,Maddox Braxton,McAllen,137.85,188.24,136.08,149.69,474,Single-ply,SBD,M,
Boys,139.71,7,Michael Garza #5,Mission,131.41,158.76,113.4,181.44,453.59,Single-ply,SBD,M,
Boys,139.71+,1,Jamarion Owens,Mercedes,147.05,276.69,163.29,215.46,655.44,Single-ply,SBD,M,
Boys,139.71+,2,Pedro Martinez,Edinburg Economedes,152.27,249.48,133.81,233.6,616.89,Single-ply,SBD,M,
Boys,139.71+,3,Leesandro Martinez,Rio Grande City Grulla,151.14,222.26,113.4,183.7,519.36,Single-ply,SBD,M,
Boys,139.71+,4,Rene Hernanez,Roma,145.19,188.24,102.06,154.22,444.52,Single-ply,SBD,M,
Boys,139.71+,5,Alexander Sosa,La Joya,150.23,99.79,65.77,142.88,308.44,Single-ply,SBD,M,
