Place,Name,State,WeightClassKg,BodyweightKg,Age,Best3SquatKg,Best3BenchKg,Best3DeadliftKg,TotalKg,Sex,Division,Equipment,Squat4Kg,Event
1,Katie Little,FL,52,51.6,22,90,47.5,117.5,255,F,Juniors 20-23,Raw,,SBD
1,Samantha Schepps,FL,56,55.7,22,92.5,62.5,127.5,282.5,F,Juniors 20-23,Raw,,SBD
2,Tatianna Johnson,FL,56,54.3,20,67.5,40,105,212.5,F,Juniors 20-23,Raw,,SBD
1,Alexandra Posada,FL,90+,102,23,117.5,52.5,145,315,F,Juniors 20-23,Raw,,SBD
1,Melissa Grix,FL,48,46,27,97.5,55,117.5,270,F,Open,Raw,,SBD
1,Jaime Palma,FL,56,55,29,117.5,55,147.5,320,F,Open,Raw,,SBD
2,Tania Kelly,FL,56,55.3,38,107.5,52.5,120,280,F,Open,Raw,,SBD
3,Jamie Schindewolf,FL,56,54.4,27,75,40,110,225,F,Open,Raw,,SBD
4,Amielee Farrell,FL,56,55.5,34,72.5,45,90,207.5,F,Open,Raw,,SBD
1,Ellen Stein,NY,60,59.6,64,152.5,92.5,192.5,437.5,F,Open,Raw,,SBD
2,Cindy Rivera,FL,60,57.8,29,145,60,165,370,F,Open,Raw,,SBD
3,Christina Grant,FL,60,60,33,117.5,75,150,342.5,F,Open,Raw,,SBD
1,Michelle Ventaloro,FL,67.5,65,26,150,82.5,160,392.5,F,Open,Raw,,SBD
2,Emily Sparks,FL,67.5,67.1,33,127.5,67.5,175,370,F,Open,Raw,,SBD
3,Alexis Sicherman,FL,67.5,67.4,25,137.5,67.5,152.5,357.5,F,Open,Raw,,SBD
4,Samantha Patryn,FL,67.5,66.6,33,127.5,67.5,155,350,F,Open,Raw,,SBD
5,Rachel Jimenez,FL,67.5,66.8,24,135,70,140,345,F,Open,Raw,,SBD
6,Nelly Morillo,FL,67.5,62.8,25,90,47.5,117.5,255,F,Open,Raw,,SBD
7,Kayla Hoag,FL,67.5,64.5,28,92.5,52.5,100,245,F,Open,Raw,,SBD
8,Jennifer DeStefano,FL,67.5,65.8,32,85,45,90,220,F,Open,Raw,,SBD
9,Tanis Clark,FL,67.5,65.8,32,65,47.5,92.5,205,F,Open,Raw,,SBD
1,Whitney McGhee,FL,75,69.2,28,140,75,200,415,F,Open,Raw,,SBD
2,Samantha Norman,FL,75,73.3,24,132.5,77.5,165,375,F,Open,Raw,,SBD
3,Victoria Primeau,FL,75,73.5,38,125,80,140,345,F,Open,Raw,,SBD
4,Maranda New,FL,75,74.7,27,100,57.5,122.5,280,F,Open,Raw,,SBD
5,Allison Martin,FL,75,73,25,100,47.5,115,262.5,F,Open,Raw,,SBD
6,Kelly Wahlers-Parrott,FL,75,75,34,80,32.5,120,232.5,F,Open,Raw,,SBD
1,Dara Jean-Pierre,FL,82.5,80.8,29,120,72.5,155,347.5,F,Open,Raw,,SBD
1,Nora Santiago,FL,90,83.1,25,140,70,137.5,347.5,F,Open,Raw,,SBD
2,Amy Fordyce,FL,90,84.4,34,120,57.5,117.5,295,F,Open,Raw,,SBD
3,Vanessa Montero,FL,90,84.6,28,105,60,125,290,F,Open,Raw,,SBD
1,Abbey Perkins,FL,90+,97.3,30,102.5,80,137.5,320,F,Open,Raw,,SBD
2,Ivy Knight,FL,90+,123.3,31,125,70,110,305,F,Open,Raw,,SBD
1,Sarah Fawcett,FL,52,48.5,38,82.5,52.5,102.5,237.5,F,Submasters 35-39,Raw,,SBD
1,Kristen Bays-Yehuda,FL,56,53.6,37,97.5,42.5,112.5,252.5,F,Submasters 35-39,Raw,,SBD
1,Val Wolfe,FL,60,58.9,36,95,62.5,107.5,265,F,Submasters 35-39,Raw,,SBD
2,Hattie Attebery,FL,60,58.9,36,90,50,115,255,F,Submasters 35-39,Raw,,SBD
1,Maya Casanova,FL,67.5,67.1,38,102.5,52.5,130,285,F,Submasters 35-39,Raw,,SBD
1,Jaime Kallay,FL,75,71.2,37,105,52.5,112.5,270,F,Submasters 35-39,Raw,,SBD
1,Aimee Halman,FL,82.5,80.2,36,148,77.5,160,385.5,F,Submasters 35-39,Raw,,SBD
1,Angela Ostermann,FL,90,89.7,39,85,42.5,122.5,250,F,Submasters 35-39,Raw,90,SBD
1,Anna Murrill,GA,90+,101.1,37,137.5,90,170,397.5,F,Submasters 35-39,Raw,,SBD
1,Brenda Christine,FL,56,54.4,49,122.5,57.5,142.5,322.5,F,Masters 45-49,Raw,,SBD
1,Maria Vega,FL,60,57.7,44,105,67.5,142.5,315,F,Masters 40-44,Raw,,SBD
1,Ellen Stein,NY,60,59.6,64,152.5,92.5,192.5,437.5,F,Masters 60-64,Raw,,SBD
1,Renee Hoffer,FL,67.5,67.3,44,102.5,57.5,117.5,277.5,F,Masters 40-44,Raw,,SBD
2,Kristin Peeples,FL,67.5,67.4,41,92.5,50,120,262.5,F,Masters 40-44,Raw,,SBD
1,Deb Davis,FL,67.5,64,62,85,62.5,97.5,245,F,Masters 60-64,Raw,,SBD
1,Karoline Alvarez,FL,75,70.2,41,110,65,135,310,F,Masters 40-44,Raw,,SBD
1,Julie Corbett,FL,90+,114.4,49,87.5,72.5,125,285,F,Masters 45-49,Raw,,SBD
1,Lynda Benson,FL,90+,100.9,63,57.5,45,102.5,205,F,Masters 60-64,Raw,,SBD
1,Anita Medolla,FL,52,52,23,110,62.5,127.5,300,F,Juniors 20-23,Wraps,,SBD
1,Shannon Johannes,FL,60,59.5,20,112.5,57.5,137.5,307.5,F,Juniors 20-23,Wraps,,SBD
1,Audrey Miller,FL,90+,113.9,23,142.5,60,160,362.5,F,Juniors 20-23,Wraps,,SBD
1,April Shumaker,FL,52,50.8,51,122.5,97.5,147.5,367.5,F,Open,Wraps,,SBD
1,Elizabeth Vigistain,FL,56,55.3,28,102.5,52.5,115,270,F,Open,Wraps,,SBD
2,Karina Gabriel,FL,56,54,25,102.5,55,105,262.5,F,Open,Wraps,,SBD
1,Eva Whittimore,FL,60,59.2,36,125,77.5,152.5,355,F,Open,Wraps,,SBD
1,Kelly Walker,FL,90+,93.9,35,175,92.5,190,457.5,F,Open,Wraps,,SBD
1,Eva Whittimore,FL,60,59.2,36,125,77.5,152.5,355,F,Submasters 35-39,Wraps,,SBD
1,Giana Acosta,FL,67.5,67.1,20,,37.5,100,137.5,F,Juniors 20-23,Raw,,BD
1,Vaughan Chambers,CO,90+,108.6,43,,47.5,87.5,135,F,Open,Raw,,BD
1,Vaughan Chambers,CO,90+,108.6,43,,47.5,87.5,135,F,Masters 40-44,Raw,,BD
1,Lynda Benson,FL,90+,100.9,63,,45,102.5,147.5,F,Masters 60-64,Raw,,BD
